Mini Project 1 – STA 9750 2024 Submission Material
…
Task One & Two: Data Cleaning

After loading the data certain column names and row values need to be changed for syntactic reasons and ease of understanding. Firstly, changing the column UZA Name to metro_area will allow for syntactic ease, and a more intuitive label.

USAGE <- inner_join(TRIPS, MILES) |>
    mutate(`NTD ID` = as.integer(`NTD ID`))

Joining with `by = join_by(`NTD ID`, Agency, `UZA Name`, Mode, `3 Mode`,
month)`

    sample_n(USAGE, 1000) |> 
    rename("metro_area" = "UZA Name") %>% #renaming UZA
    mutate(month=as.character(month))

# A tibble: 1,000 × 8
   `NTD ID` Agency                 metro_area Mode  `3 Mode` month    UPT    VRM
      <int> <chr>                  <chr>      <chr> <chr>    <chr>  <dbl>  <dbl>
 1    90045 Regional Transportati… Las Vegas… MB    Bus      2009… 4.78e6 1.40e6
 2    90009 San Mateo County Tran… San Franc… DR    Bus      2012… 3.37e3 1.99e5
 3    50015 The Greater Cleveland… Cleveland… DR    Bus      2013… 3.51e4 4.32e5
 4    50057 Rock Island County Me… Davenport… DR    Bus      2011… 1.32e3 1.99e4
 5    90017 City of Santa Rosa     Santa Ros… DR    Bus      2024… 2.41e3 1.41e4
 6    90200 Kings County Area Pub… Hanford, … DR    Bus      2012… 2.79e3 8.59e3
 7    50113 Pace, the Suburban Bu… Chicago, … MB    Bus      2022… 3.86e4 1.83e6
 8    50113 Pace, the Suburban Bu… Chicago, … DR    Bus      2014… 2.58e3 4.13e5
 9    20122 Academy Lines, Inc.    New York-… CB    Bus      2016… 3.07e5 7.22e5
10    90182 Altamont Corridor Exp… Stockton,… CR    Rail     2003… 5.60e4 6.74e4
# ℹ 990 more rows
…
Which transit system (agency and mode) had the highest fare-box recovery(Ratio of Total Fares to Expenses)?

Using mutate to create another calculated column with the Fare Box Ratio formula we get the answer, Vanpool in the Central Kentucky agency. This makes sense as vanpool is essentially car pooling in small vehicles like vans and small buses for shorter distances. This allows for lower costs then other modes like for example Heavy Rail, which require lots of maintenance and overhead.

      USAGE_AND_FINANCIALS<-USAGE_AND_FINANCIALS %>% 
         group_by(`Agency Name`,`Mode`) %>% 
         mutate(fare_box_recovery = `Total Fares`/Expenses) %>%
         arrange(desc(fare_box_recovery))
         print(USAGE_AND_FINANCIALS)

# A tibble: 1,132 × 8
# Groups:   Agency Name, Mode [1,130]
   `NTD ID` Mode    annual_trips annual_vrm `Agency Name` `Total Fares` Expenses
      <dbl> <chr>          <dbl>      <dbl> <chr>                 <dbl>    <dbl>
 1    40191 Vanpool         9640      94027 Transit Auth…         97300    40801
 2    40034 Vanpool       395004    3091052 County of Mi…       1987879  1191874
 3    90233 Vanpool        70093     462346 Yuma County …        411216   279585
 4    20190 Ferryb…      3757873     504037 Port Imperia…      33443241 23417248
 5    11239 Ferryb…       878728     188694 Hyannis Harb…      25972659 18383764
 6    11238 Ferryb…        96707      56980 Bay State LLC       6287351  4672351
 7    20169 Commut…       403646    1259602 Trans-Bridge…      11325199  8495611
 8    40001 Inclin…       481957      20128 Chattanooga …       3005198  2290714
 9    66339 Vanpool       118780    1748901 New Mexico D…        757574   588830
10       12 Vanpool       189684    1582484 Municipality…       1400709  1105911
# ℹ 1,122 more rows
# ℹ 1 more variable: fare_box_recovery <dbl>

Which transit system (agency and mode) has the lowest expenses per UPT?

Similarly we can answer this question.

       USAGE_AND_FINANCIALS %>% 
           group_by(`Agency Name`,`Mode`) %>% 
           mutate(expenses_per_trip = Expenses/annual_trips) %>% 
           select(`Agency Name`,Mode,expenses_per_trip) %>% 
           arrange(expenses_per_trip)

# A tibble: 1,132 × 3
# Groups:   Agency Name, Mode [1,130]
   `Agency Name`                                         Mode  expenses_per_trip
   <chr>                                                 <chr>             <dbl>
 1 North Carolina State University                       Bus                1.18
 2 Anaheim Transportation Network                        Bus                1.28
 3 Valley Metro Rail, Inc.                               Stre…              1.49
 4 University of Iowa                                    Bus                1.54
 5 Chatham Area Transit Authority                        Ferr…              1.60
 6 Texas State University                                Bus                2.05
 7 South Florida Regional Transportation Authority       Bus                2.27
 8 University of Georgia                                 Bus                2.31
 9 Hillsborough Area Regional Transit Authority          Stre…              2.45
10 University of Michigan Parking and Transportation Se… Bus                2.52
# ℹ 1,122 more rows
…
