Mini Project#2 - Hollywood Analysis – STA 9750 2024 Submission Material
…
We can see from above that the drama genre has the highest number in 2010, but does it have a good success rate?

Show the code

recent %>% 
  filter(decade== 2010) %>% 
  separate_longer_delim(genres, ",") %>% 
  group_by(genres) %>% 
  mutate(total_n_genre = n()) %>% #total rows per genre
  filter(CLI > 8) %>%
  mutate(success_rate = n() / total_n_genre) %>% 
  select(genres,decade,success_rate)

# A tibble: 65,752 × 3
# Groups:   genres [26]
   genres    decade success_rate
   <chr>      <dbl>        <dbl>
 1 Adventure   2010        0.623
 2 Comedy      2010        0.470
 3 Drama       2010        0.578
 4 Adventure   2010        0.623
 5 Comedy      2010        0.470
 6 Drama       2010        0.578
 7 Adventure   2010        0.623
 8 Comedy      2010        0.470
 9 Drama       2010        0.578
10 Adventure   2010        0.623
# ℹ 65,742 more rows
…
